<?xml version="1.0" encoding="UTF-8"?>
<svg width="16px" height="16px" viewBox="0 0 16 16" version="1.1" xmlns="http://www.w3.org/2000/svg" xmlns:xlink="http://www.w3.org/1999/xlink">
    <!-- Generator: Sketch 42 (36781) - http://www.bohemiancoding.com/sketch -->
    <title>media-16px-1_audio-91</title>
    <desc>Created with Sketch.</desc>
    <defs></defs>
    <g id="Page-1" stroke="none" stroke-width="1" fill="none" fill-rule="evenodd">
        <g id="media-16px-1_audio-91" fill-rule="nonzero" fill="#909090">
            <path d="M8,10 C10.2,10 12,8.2 12,6 L12,4 C12,1.8 10.2,0 8,0 C5.8,0 4,1.8 4,4 L4,6 C4,8.2 5.8,10 8,10 Z" id="Shape"></path>
            <path d="M15.9,7.1 C16,6.6 15.6,6.1 15.1,6 C14.6,5.9 14,6.3 14,6.8 C13.5,9.8 11,12 8,12 C5,12 2.5,9.8 2.1,6.9 C2,6.3 1.5,5.9 0.9,6 C0.4,6.1 0,6.6 0.1,7.1 C0.6,10.7 3.5,13.4 7,13.9 L7,16 L9,16 L9,13.9 C12.5,13.5 15.4,10.7 15.9,7.1 Z" id="Shape"></path>
        </g>
    </g>
</svg>